…
  for(movie_title in list_of_titles){
  table <- search_by_title(mykey,movie_title)
  mat=rbind(mat,table)
  }
  return(mat)
}
```

You should get a tibble that looks like this:

    ## # A tibble: 30 × 26
    ##    Title     Year  Rated Released Runtime Genre Director Writer Actors Plot  Language Country Awards Poster Ratings.Source
    ##    <chr>     <chr> <chr> <chr>    <chr>   <chr> <chr>    <chr>  <chr>  <chr> <chr>    <chr>   <chr>  <chr>  <chr>         
    ##  1 Star Wars 1977  PG    25 May … 121 min Acti… George … Georg… Mark … Luke… English  United… Won 6… https… Internet Movi…
    ##  2 Star Wars 1977  PG    25 May … 121 min Acti… George … Georg… Mark … Luke… English  United… Won 6… https… Rotten Tomato…
    ##  3 Star Wars 1977  PG    25 May … 121 min Acti… George … Georg… Mark … Luke… English  United… Won 6… https… Metacritic    
    ##  4 Star War… 1980  PG    20 Jun … 124 min Acti… Irvin K… Leigh… Mark … Afte… English  United… Won 1… https… Internet Movi…
    ##  5 Star War… 1980  PG    20 Jun … 124 min Acti… Irvin K… Leigh… Mark … Afte… English  United… Won 1… https… Rotten Tomato…
    ##  6 Star War… 1980  PG    20 Jun … 124 min Acti… Irvin K… Leigh… Mark … Afte… English  United… Won 1… https… Metacritic    
    ##  7 Star War… 1983  PG    25 May … 131 min Acti… Richard… Lawre… Mark … Afte… English  United… Nomin… https… Internet Movi…
    ##  8 Star War… 1983  PG    25 May … 131 min Acti… Richard… Lawre… Mark … Afte… English  United… Nomin… https… Rotten Tomato…
    ##  9 Star War… 1983  PG    25 May … 131 min Acti… Richard… Lawre… Mark … Afte… English  United… Nomin… https… Metacritic    
    ## 10 Star War… 2015  PG-13 18 Dec … 138 min Acti… J.J. Ab… Lawre… Daisy… As a… English  United… Nomin… https… Internet Movi…
    ## # … with 20 more rows, and 11 more variables: Ratings.Value <chr>, Metascore <chr>, imdbRating <chr>, imdbVotes <chr>,
    ## #   imdbID <chr>, Type <chr>, DVD <chr>, BoxOffice <chr>, Production <chr>, Website <chr>, Response <chr>
…
